﻿--
-- Customers
--
VIEW_CUSTOMER_ACCOUNT
--
-- Orders
--
VIEW_ORDERS
PROCESS_ORDER
--
-- Stores
--
VIEW_STORES
VIEW_STORE
--
-- Manager Account
--
VIEW_MANAGER_ACCOUNT
--
-- Employee Account
--
VIEW_EMPLOYEE_ACCOUNT
EDIT_EMPLOYEE_ACCOUNT
--
-- Catalog
--
VIEW_CATALOG
--
-- Product
--
VIEW_PPRODUCT
--