{
    "path": [
        { "name": "app/plugins", "permissions": "0777" }, 
        { "name": "app/etc", "permissions": "0777" }, 
        { "name": "var", "permissions": "0777" }, 
        { "name": "var/backup", "permissions": "0777" }, 
        { "name": "var/cache", "permissions": "0777" }, 
        { "name": "var/imports", "permissions": "0777" }, 
        { "name": "var/packages", "permissions": "0777" },
        { "name": "skin/Apps", "permissions": "0777" },
        { "name": "ui/images/app-icons", "permissions": "0777" },
        { "name": "ui/images/catalog", "permissions": "0777" },
        { "name": "ui/images/catalog/full", "permissions": "0777" },
        { "name": "ui/images/catalog/large", "permissions": "0777" },
        { "name": "ui/images/catalog/temp", "permissions": "0777" },
        { "name": "ui/images/catalog/thumb", "permissions": "0777" },
        { "name": "ui/images/catalog/tiny", "permissions": "0777" },
        { "name": "ui/images/catalog/zoom", "permissions": "0777" }
    ]
}
