Handle,Title,Body (HTML),Vendor,Type,Tags,Published,Option1 Name,Option1 Value,Option2 Name,Option2 Value,Option3 Name,Option3 Value,Variant SKU,Variant Grams,Variant Inventory Tracker,Variant Inventory Qty,Variant Inventory Policy,Variant Fulfillment Service,Variant Price,Variant Compare At Price,Variant Requires Shipping,Variant Taxable,Variant Barcode,Image Src,Image Alt Text,Gift Card,SEO Title,SEO Description,Google Shopping / Google Product Category,Google Shopping / Gender,Google Shopping / Age Group,Google Shopping / MPN,Google Shopping / AdWords Grouping,Google Shopping / AdWords Labels,Google Shopping / Condition,Google Shopping / Custom Product,Google Shopping / Custom Label 0,Google Shopping / Custom Label 1,Google Shopping / Custom Label 2,Google Shopping / Custom Label 3,Google Shopping / Custom Label 4,Variant Image,Variant Weight Unit
carrot-and-avocado-skin-beautifying-oil,Carrot and Avocado Skin beautifying oil,"<p>Our Carrot and Avocado skin beautifying oil is light and deep penetrating, enriched with vitamin a,b,c and it promotes cell regeneration and repair to keep the skin looking younger for longer. It is fortified with beta carotene which evens out skin tone, brightens dull complexions and combats premature signs of ageing, fine lines and wrinkles.</p>
<p>Benefits:</p>
<ul>
<li><span style=""line-height: 1.2;"">Seals in moisture. </span></li>
<li><span style=""line-height: 1.2;"">Keeps skin moisturised all day. </span></li>
<li><span style=""line-height: 1.2;"">Prevents dry cracking skin.</span></li>
<li><span style=""line-height: 1.2;"">Full of vitamin a &amp; e. </span></li>
<li><span style=""line-height: 1.2;"">Prevents and gets rid of age spots and wrinkles. </span></li>
<li><span style=""line-height: 1.2;"">Repairs lost elasticity.</span></li>
</ul>
<p><span style=""line-height: 1.2;""> Avocado oil (Persea americana) Cocos nucifera(coconut oil), helianthus annus(sunflower oil), prunus amyygdalus dulcis(almond oil), daucus carota sativa(macerated carrot oil), glycyrrhiza glabra(liquorice root)citrus limonnium(lemon oil) salvia sclarea(clary sage oil),juniperus virginiana (cedarwood oil) alpha tocopherol(vitamin e oil)</span></p>
<p> </p>",Namaste Organics,Hair and Skin oil,"almondoil, avocadooil, carrot oil, cell regeneration, coconut oil, collagenrepair, finelines, liquorice root, skin repair, sunflower oil, vitamin e, wrinkles",true,Title,Skin Beautifying oil,,,,,"",0,shopify,29,continue,manual,3700.00,,true,false,7201898046016,https://cdn.shopify.com/s/files/1/0540/4697/products/DSC_2249webresize.jpg?v=1408699185,,false,,,,,,,,,,,,,,,,,kg
aloe-vera-water-hair-repair-growth-infusion,Organic Aloe Vera Water-Rapid hair growth infusion,"<p>Aloe Vera Hair growth infusion for hair repair and rapid growth, great for freshening hair and scalp. </p>
<p>Benefits:</p>
<ul>
<li><span style=""line-height: 1.2;"">Keeps hair naturally moisturised. </span></li>
<li><span style=""line-height: 1.2;"">Conditions beautifully. </span></li>
<li><span style=""line-height: 1.2;"">Full of vitamins your hair needs. </span></li>
<li><span style=""line-height: 1.2;"">Prevents breakage. </span></li>
<li><span style=""line-height: 1.2;"">Freshens hair from roots to tip.</span></li>
</ul>
<p><span style=""line-height: 1.2;"">Ingredients:</span></p>
<p><span style=""line-height: 1.2;"">Aqua, aloe vera babadensis extract, cocos nucifera (coconut oil), Persea americana (avocado oil), cananga odorata ( ylang ylang oil) rosmarinus officinalis (rosemary oil), ethihexylglycerin and phenoxyethanol( preservative).</span></p>",Namaste Organics,Leave in Conditioner,"aloevera, avocadooil, coconutoil, hairgrowth, hairrepair, hairspritz, moisture, moisturising, natural, newgrowth, protective, soothing",true,Title,500ml,,,,,"",500000,shopify,16,continue,manual,4000.00,,true,false,"",https://cdn.shopify.com/s/files/1/0540/4697/products/AloeWaterwebbie.jpg?v=1408716999,,false,,,,,,,,,,,,,,,,,kg
avocado-and-coconut-leave-in-conditioner-with-aloe-vera-and-d-pantenol,Avocado and Coconut leave-in-conditioner  with  Aloe vera  and D-Pantenol,"<p>Extra Moisturising Leave in conditioner with Aloe Vera and D Pantenol for afro ,braids , weaves, natura curls, locks and twists.it softens hair and relieves itchy dry scalp and helps maintain the shine.</p>
<p>Benefits</p>
<ul>
<li><span style=""line-height: 1.2;"">Conditions hair and scalp. </span></li>
<li><span style=""line-height: 1.2;"">Smoothens and repairs hair follicles. </span></li>
<li><span style=""line-height: 1.2;"">Moisturises hair to prevent breakage.</span></li>
<li><span style=""line-height: 1.2;"">Repairs dry dull hair. </span></li>
<li><span style=""line-height: 1.2;"">Grows and maintains hair length and lustre.</span></li>
</ul>
<p><span style=""line-height: 1.2;"">Ingredients:</span></p>
<p><span style=""line-height: 1.2;"">Aqua, aloe vera barbadensis gel, butyrospermum parkii(shea butter), cocos nucifera (coconut oil), adansonia digitata(african baobab oil) ,olea europaea(olive oil) azadiracht indica(neem oil), persea americana (avocado oil), prunus amygdalus dulcis(almond oil), rosemarinus officianus(rosemary oil), cananga odorata(ylangylang)oil, mentha piperita(peppermint oil),panthenol (pro-vitamin b5),alpha tocopherol(vitamin e oil) glycerin, phenoxyethanol and ethihexylglycerin (preservative) </span></p>",Namaste Organics,Leave in Conditioner,"african, aloe vera, balancing, clearskin, coconutoil, leaveinconditioner, lemongrass, moisturising, natural, pantenol, protective, rosemary, ylangylang",true,Title,250ml,,,,,"",250,shopify,35,continue,manual,2500.00,,true,false,7201896045644,https://cdn.shopify.com/s/files/1/0540/4697/products/20140624_075520webbiecopy.jpg?v=1408700378,,false,,,,,,,,,,,,,,,,,kg
avocado-and-coconut-leave-in-conditioner-with-aloe-vera-and-d-pantenol,,,,,,,,800ml Salon size,,,,,"",800000,shopify,0,deny,manual,8000.00,,true,false,"",,,,,,,,,,,,,,,,,,,,kg
papaya-and-coconut-body-polish,Papaya and Coconut body polish,"<p>Benefits:</p>
<ul>
<li>Gets rid of dead skin</li>
<li>Brightens complexion naturally</li>
<li>Papaya is also a rich source of antioxidant nutrients such as carotenes, vitamin C and flavonoids; the B vitamins, folate and pantothenic acid; and the minerals, potassium and magnesium; and fiber.</li>
<li>Keeps Skin Hydrated</li>
<li>Promotes smooth and soft skin</li>
<li>Conditions skin naturally</li>
<li>Removes hyper pigmentation and skin discolouration</li>
</ul>
<p>Ingredients</p>
<p>aqua, ground rice flour,butyrospermum parkii(shea butter) ,cocos nucifera(coconut oil),carica papaya(papaya seed extract) baphia nitida(camwood bark), rosarinus officnalis(rosemary oil), cymbopogon citrus(lemon grass oil), cedrus atlantica(cedarwood oil), menthapeperita (peppermint oil), alpha tocopherol(vitamin e oil). sorbitan.palmiate (emulsifier), phenoxyethanol and ethihexylglycerin (preservative)</p>",Namaste Organics,Scrubs,"acne, african, balancing, clearskin, coconut, coconutoil, deadskin, hydrates, natural, papaya, papayaseedextract, protective, smoothening",true,Title,200gm,,,,,"",0,shopify,-1,continue,manual,2800.00,,true,false,"",https://cdn.shopify.com/s/files/1/0540/4697/products/DSC_2240webresize.jpg?v=1408714406,,false,,,,,,,,,,,,,,,,,kg
papaya-and-coconut-body-polish,,,,,,,,100gm Travel size,,,,,"",0,,0,deny,manual,1800.00,,true,false,"",,,,,,,,,,,,,,,,,,,,kg
patchuoli-orange-and-honey-body-scrub,"Patchuoli, orange and honey body scrub","<p>Benefits</p>
<ul>
<li><span style=""line-height: 1.2;"">Naturally moisturising</span></li>
<li><span style=""line-height: 1.2;"">deodorising</span></li>
<li><span style=""line-height: 1.2;"">gentle exfoliation</span></li>
<li><span style=""line-height: 1.2;"">Hydrates the skin</span></li>
<li><span style=""line-height: 1.2;"">Gets rid of dead skin</span></li>
<li><span style=""line-height: 1.2;"">enriches and soothes irritated skin</span></li>
<li><span style=""line-height: 1.2;"">Speeds up healing of the skin and wounds</span></li>
</ul>
<p>ingredients: Aqua, butyrospermum parkii(shea butter), cocos nucifera(coconut oil), honey, ground rice powder, baphia nitida (camwood bark), pogostermon cablin(patchuoli oil) citrus sinensis (orange oil) rosmarinus officinalis (rosemary oil) alpha tocopherol( vitamin e oil) sorbitan.palmiate (emulsifier), phenoxyethanol and ethihexylglycerin (preservative) .</p>",Namaste Organics,Scrubs,"african, cleansing, clearskin, coconutoil, dead skin, exfoliating, ground rice flour, honey, orangeoil, patchouli, rosemary, sheabutter, soothing",true,Title,Default Title,,,,,"",0,shopify,1,deny,manual,2800.00,,true,false,"",https://cdn.shopify.com/s/files/1/0540/4697/products/DSC_2246webbie_copy.jpg?v=1408698765,,false,,,,,,,,,,,,,,,,,kg
patchuoli-orange-and-honey-body-scrub,,,,,,,,Travel size,,,,,"",100,,0,deny,manual,1800.00,,true,false,"",,,,,,,,,,,,,,,,,,,,g
bergamot-and-lemongrass-sugar-scrub,Bergamot and Lemongrass Sugar Scrub,"<p>Benefits:</p>
<ul>
<li>gentle exfoliating</li>
<li>alpha hydroxy rich</li>
<li>gentle conditioning</li>
<li>gets rid of dead skin naturally</li>
<li>removes dry flaky skin</li>
<li>hydrates the skin without clogging the pore</li>
</ul>
<p>Uses: Sugar is one of the best natural beauty ingredients to exfoliate the skin. It helps to remove dead skin cell and is very helpful in keeping the skin soft and supple. While bergamot oil is very good to eliminate unsightly effects of acne and wrinkles. It’s balancing oil for oily skin and relaxes nerves and muscles. And lemongrass normalizes and balances overactive oil glands on the skin and scalp.</p>
<p>Ingredients:</p>
<p>:Butyrospermum Parkii (Shea butter), Cocos nucifera (Coconut oil), Sugar, Baphia Nitida (Cam wood bark), Citrus Bergamia (Bergamot oil), Romarinus Officinalis (Rosemary oil), Cymbopogon Citratus (Lemongrass oil) and Alpha tocopherol (Vitamin E oil), sorbitan.palmiate (emulsifier), phenoxyethanol and ethihexylglycerin (preservative</p>",Namaste Organics,Scrubs,"african, alphahydroxy, balancing, clearskin, coconutoil, deadskin, exfoliating, gentle, hydrates, moisturising, natural, protective, sugar, sugarscrub",true,Title,250gms,,,,,"",250,,-2,deny,manual,2800.00,,true,false,"",https://cdn.shopify.com/s/files/1/0540/4697/products/DSC_2242webresize.jpg?v=1408698962,,false,,,,,,,,,,,,,,,,,kg
bergamot-and-lemongrass-sugar-scrub,,,,,,,,100gm Travel size,,,,,"",100,shopify,5,continue,manual,1800.00,,true,false,7266702604134,,,,,,,,,,,,,,,,,,,,kg
bentonite-clay-face-and-hair-mask,"Bentonite Clay, Face and Hair mask","<p>Natural Detoxifying clay, for Hair and Skin, just add water (Naturally Detoxifying clay for Hair and Skin)</p>
<p>Benefits:</p>
<ul>
<li>detoxifying hair and skin</li>
<li>redefines hair texture leaving it softer and more managable</li>
<li>great for acne sufferers by drawing out the excess oil on the skin without drying it out.</li>
<li>great alternative to using shampoo</li>
<li>soothes various skin conditions such as burns, blemishes, insect bites and eczema</li>
<li>Helps soothe dry itchy scalp</li>
</ul>
<p>Ingredients:</p>
<p> Pure Bentonite clay, Rosmaeinus officinalis (Rosemary oil), Cymbopogon citratus (Lemongrass oil), Cedrus Atlantica (cedar wood oil), Mentha peperita (peppermint oil) and Cananga odorata (Yang Ylang oil).</p>",Namaste Organics,Clay,"acneprone, bentonite, cedarwood, clay, cleanse, detox, natural, patchouli, protective, rosemary, ylangylang",true,Title,Default Title,,,,,"",400000,shopify,0,continue,manual,2000.00,,true,false,79997504394,https://cdn.shopify.com/s/files/1/0540/4697/products/LCC_6340webbie.jpg?v=1408700122,,false,,,,,,,,,,,,,,,,,kg
exfoliating-100-african-black-soap-body-wash-with-papaya-seed-extract-and-sweet-orange-and-patchouli-oil-gentle-daily-clarifying-brightening-and-anti-fungal,Exfoliating 100% African Black Soap Body Wash With Papaya Seed Extract and Sweet Orange and Patchouli oil. Gentle daily clarifying and anti fungal,"<p>Benefits:</p>
<p>African black soap has been used for centuries to cleanse the skin and hair as well as treat all skin and scalp ailments, it is revered for its mildness and cleansing properties that it is suitable for babies and people with sensitive skin. Its is full of natural conditioning oils, like palm kennel oil and coconut oil that leave the skin refreshed, detoxified, clean and fresh without drying the skin. It is also revered for its anti fungal and antibacterial properties. Papaya gets rid of dry dead skin naturally, allowing the new skin underneath to emerge and giving you a brighter fresher look, The essence of Sweet orange oil uplifts and detoxifies the skin, Patchouli oil is a natural deodoriser,prevents wrinkles, speeds up the healing of wounds and scars.</p>
<p>Ingredients</p>
<p>Aqua, Cocos nucifera (coconut oil), Baphia Nitida (cam wood bark), Bentonite Clay, Carica Papaya (Papaya seed and leaf extract), Elaeis guineensis (palm kernel oil), Coco pod Ash, Plantain peel ash, Shea bark ash, Citrus sinensis (Sweet orange oil), Pogostemon cablin( Patchouli oil) and Citric acid</p>",Namaste Organics,African Black Soap,"acne, african, balancing, clearskin, coconutoil, deodoant, fungus, mature, matureskin, moisturising, natural, papaya leaf, papayaseed, patchouli oil, protective, skinrepair",true,Title,400gm,,,,,"",400,,-8,deny,manual,2500.00,,true,false,7999750439204,https://cdn.shopify.com/s/files/1/0540/4697/products/LCC_6310webbie_copy.jpg?v=1408710492,,false,,,,,,,,,,,,,,,,,kg
exfoliating-100-african-black-soap-body-wash-with-papaya-seed-extract-and-sweet-orange-and-patchouli-oil-gentle-daily-clarifying-brightening-and-anti-fungal,,,,,,,,900gm,,,,,"",900,,-2,deny,manual,4500.00,,true,false,"",,,,,,,,,,,,,,,,,,,,kg
exfoliating-100-african-black-soap-body-wash-with-papaya-seed-extract-and-sweet-orange-and-patchouli-oil-gentle-daily-clarifying-brightening-and-anti-fungal,,,,,,,,Liquid Papaya African Black soap,,,,,"",400,shopify,22,deny,manual,2500.00,,true,true,"",,,,,,,,,,,,,,,,,,,,kg
relaxing-100-african-black-soap-body-wash-with-clary-sage-and-lavender-oil-soothing-relaxing-and-reviving,"Relaxing 100% African Black Soap Body Wash With Clary sage and Lavender oil, Soothing, relaxing and reviving.","<p>Benefits</p>
<p>African black soap has been used for centuries to cleanse the skin and hair as well as treat all skin and scalp ailments, it is revered for its mildness and cleansing properties that it is suitable for babies and people with sensitive skin. Its is full of natural conditioning oils, like palm kennel oil and coconut oil that leave the skin refreshed, detoxified, clean and fresh without drying the skin. It is also revered for its anti fungal and antibacterial properties. Lavender and Clary Sage have long been used in aromatherapy for the relaxing properties, they soothe the nerves and promotes restful sleep, this is the perfect black soap for use when you just want to be calm and relaxed all day long.</p>
<p>Ingredient:</p>
<p>Aqua, Cocos nucifera (Coconut oil), Baphia Nitida (Cam wood Bark), Bentonite clay, Cymbopogon citratus (Lemongrass oil), Salvia Sclarea (Clary sage), Lavendula Augustifolia (Lavender oil), Elaeis guineensis (Palm kernel oil), Cocopod Ash, Plantain Peel Ash, shea bark ash and Citric acid.</p>
<p> </p>
<p> </p>
<p> </p>",Namaste Organics,African Black Soap,"acne, african, balancing, clarysage, clearskin, coconutoil, lavender, mature, moisturising, natural, protective, relaxing, restfulsleep, soothing",true,Title,400g,,,,,"",400,,-2,deny,manual,2500.00,,true,false,"",https://cdn.shopify.com/s/files/1/0540/4697/products/LCC_6337webbie_copy.jpg?v=1408700026,,false,,,,,,,,,,,,,,,,,kg
relaxing-100-african-black-soap-body-wash-with-clary-sage-and-lavender-oil-soothing-relaxing-and-reviving,,,,,,,,900g,,,,,"",900,,0,deny,manual,4500.00,,true,false,"",,,,,,,,,,,,,,,,,,,,kg
exfoliating-100-african-black-soap-uplifting-body-wash-with-lemongrass-and-bergamot,Exfoliating 100% African Black Soap Uplifting Body Wash With Lemongrass and Bergamot.,"<p>Benefits</p>
<p>African black soap has been used for centuries to cleanse the skin and hair as well as treat all skin and scalp ailments, it is revered for its mildness and cleansing properties that it is suitable for babies and people with sensitive skin. Its is full of natural conditioning oils, like palm kennel oil and coconut oil that leave the skin refreshed, detoxified, clean and fresh without drying the skin. It is also revered for its anti fungal and antibacterial properties, last but not least, the zingy lemongrass oil normalises and balances overactive oil glands on the skin and scalp, thereby making this particular black soap great for people with acne breakouts and oily skin and the heavenly bergamot oil acts as a natural deodoriser, keeping your skin fresh and citrusy all day long.</p>
<p>Ingredients</p>
<p>Aqua, Cocos nucifera (Coconut oil), Baphia Nitida (Cam wood Bark), Bentonite Clay, Citrus Bergamia (Bergamot oil), Cymbopogon Citratus (Lemongrass oil), Elaeis guineensis (Palm kernel oil), Coco pod Ash, Plantain Peel Ash, Shea Bark ash and Citric Acid.</p>",Namaste Organics,African Black Soap,"acne, african, afrocanblacksoap, balancing, bergamotoil, cleanse, clearskin, coconutoil, lemongrassoil, matureskin, moisturising, narural, natural, protective",true,Title,400gm,,,,,"",400,shopify,1,continue,manual,2500.00,,true,false,"",https://cdn.shopify.com/s/files/1/0540/4697/products/LCC_6313webbie_copy.jpg?v=1408711051,,false,,,,,,,,,,,,,,,,,kg
exfoliating-100-african-black-soap-uplifting-body-wash-with-lemongrass-and-bergamot,,,,,,,,900gm,,,,,"",400,shopify,13,continue,manual,4500.00,,true,false,7999750438832,,,,,,,,,,,,,,,,,,,,kg
exfoliating-100-african-black-soap-uplifting-body-wash-with-lemongrass-and-bergamot,,,,,,,,Liquid Lemongrass And Bergamot African Black Soap,,,,,"",400,shopify,13,continue,manual,2500.00,,true,true,"",,,,,,,,,,,,,,,,,,,,kg
exfoliating-100-african-black-soap-hair-and-body-wash-with-eucalyptus-oil-anti-dandruff-revitalising-and-decongestant,"Exfoliating 100% African Black Soap Hair And Body Wash With Eucalyptus Oil  Anti-dandruff, revitalising and decongestant","<p> </p>
<p>Benefits</p>
<meta charset=""utf-8"">
<p><span>African black soap has been used for centuries to cleanse the skin and hair as well as treat all skin and scalp ailments, it is revered for its mildness and cleansing properties that it is suitable for babies and people with sensitive skin. Its is full of natural conditioning oils, like palm kennel oil and coconut oil that leave the skin refreshed, detoxified, clean and fresh without drying the skin. </span></p>
<p><span> The </span>Eucalyptus African black soap can be used as a body or hair wash, it cleanses gently without stripping your hair or scalp of its natural oils, it prevents dandruff, itchy and dry scalp and build up. </p>
<p>Ingredients: Aqua, Cocos nucifera (coconut oil), Baphia Nitida (cam wood bark), Bentonite Clay, Eucalyptus Radiate (eucalyptus oil), Elaeis guineensis (palm kernel oil), Coco pod Ash, Plantain peel ash,shea bark ash and Citric acid.</p>
<p> </p>",Namaste Organics,African Black Soap,"african, antibacterial, antifungal, balancing, clearskin, coconutoil, dandruff, decongestant, eucalyptus, itchyscalp, moisturising, natural, protective, volume, yeast",true,Title,400gm,,,,,"",400,,-2,deny,manual,2500.00,,true,false,7999750439136,https://cdn.shopify.com/s/files/1/0540/4697/products/LCC_6335webbie2_copy.jpg?v=1408710703,,false,,,,,,,,,,,,,,,,,kg
exfoliating-100-african-black-soap-hair-and-body-wash-with-eucalyptus-oil-anti-dandruff-revitalising-and-decongestant,,,,,,,,900gm,,,,,"",400,,1,deny,manual,4500.00,,true,false,"",,,,,,,,,,,,,,,,,,,,kg
exfoliating-100-african-black-soap-hair-and-body-wash-with-eucalyptus-oil-anti-dandruff-revitalising-and-decongestant,,,,,,,,Liquid Eucalyptus African Black Soap,,,,,"",400,shopify,11,deny,manual,2500.00,,true,true,"",,,,,,,,,,,,,,,,,,,,kg
exfoliating-100-african-black-soap-conditioning-hair-wash-with-rosemary-and-ylang-ylang-oil-stimulating-and-deep-hair-conditioning,Exfoliating 100% African Black Soap Conditioning Hair Wash With Rosemary and Ylang Ylang oil...Stimulating and deep hair conditioning,"<p>Benefits:</p>
<p>African black soap has been used for centuries to cleanse the skin and hair as well as treat all skin and scalp ailments, it is revered for its mildness and cleansing properties that it is suitable for babies and people with sensitive skin. Its is full of natural conditioning oils, like palm kennel oil and coconut oil that leave the skin refreshed, detoxified, clean and fresh without drying the skin. It is also revered for its anti fungal and antibacterial properties, The Rosemary oil opens up the pores and and allows the circulation of blood to the scalp and skin, thereby allowing your hair to grow and breathing new life into the skin as well...</p>
<p>Ingredients: Aqua, Cocos nucifera (coconut oil), Baphia Nitida (cam wood bark), Bentonite Clay, Rosmarinus officinalis (rosemary oil), Cananga Odorata (Ylang-Ylang oil) Elaeis guinensis (palm kernel oil), Cocopod Ash, Plantain peel ash, Shea Bark ash and Citric acid.</p>",Namaste Organics,African Black Soap,"african, balancing, clearskin, coconutoil, deepconditioning, hairrepair, moisturising, natural, newhairgrowth, protective, rosemary, rosemary oil, templehair, ylangylang",true,Title,400gm,,,,,"",400,,-1,deny,manual,2500.00,,true,false,7999750438832,https://cdn.shopify.com/s/files/1/0540/4697/products/LCC_6324webbieresize.jpg?v=1408710603,,false,,,,,,,,,,,,,,,,,kg
exfoliating-100-african-black-soap-conditioning-hair-wash-with-rosemary-and-ylang-ylang-oil-stimulating-and-deep-hair-conditioning,,,,,,,,900gm,,,,,"",400,,1,deny,manual,4500.00,,true,false,"",,,,,,,,,,,,,,,,,,,,kg
exfoliating-100-african-black-soap-conditioning-hair-wash-with-rosemary-and-ylang-ylang-oil-stimulating-and-deep-hair-conditioning,,,,,,,,Liquid Rosemary and Ylangylang African Black Soap,,,,,"",400,shopify,12,deny,manual,2500.00,,true,true,"",,,,,,,,,,,,,,,,,,,,kg
exfoliating-100-african-black-soap-body-wash-with-lemongrass-oil-gentle-daily-exfoliation-anti-fungal-and-bacterial,"Exfoliating 100% African Black Soap Body Wash With Lemongrass oil...Gentle daily exfoliation, anti-fungal and anti-bacterial","<p>Benefits</p>
<p>African black soap has been used for centuries to cleanse the skin and hair as well as treat all skin and scalp ailments, it is revered for its mildness and cleansing properties that it is suitable for babies and people with sensitive skin. Its is full of natural conditioning oils, like palm kennel oil and coconut oil that leave the skin refreshed, detoxified, clean and fresh without drying the skin. It is also revered for its anti fungal and antibacterial properties, last but not least, lemongrass oil normalises and balances overactive oil glands on the skin and scalp, thereby making this particular black soap great for people with acne breakouts and oily skin. .</p>
<p>Ingredients: Aqua, Cocos nucifera (coconut oil), Baphia Nitida (camwood bark), Bentonite Clay, Cymbopogon Citratus (Lemongrass oil), Elaeis guineensis (palm kernel oil), Coco pod Ash, Plantain peel ash and Citric acid.</p>
<p> </p>",Namaste Organics,African Black Soap,"acne, african, balancing, breakouts, clearskin, coconutoil, lemongrass, mature, moisturising, natural, normalising, oilyskin, protective, skinrepair",true,Title,400gm,,,,,"",400000,shopify,5,continue,manual,2500.00,,true,false,7999750438764,https://cdn.shopify.com/s/files/1/0540/4697/products/LCC_6330webbie_copy_051b9c71-3728-487d-b7a0-db0aafcb25c2.jpg?v=1408710351,,false,,,,,,,,,,,,,,,,,kg
exfoliating-100-african-black-soap-body-wash-with-lemongrass-oil-gentle-daily-exfoliation-anti-fungal-and-bacterial,,,,,,,,900gm,,,,,"",900000,,-2,deny,manual,4500.00,,true,false,"",,,,,,,,,,,,,,,,,,,,kg
exfoliating-100-african-black-soap-body-wash-with-lemongrass-oil-gentle-daily-exfoliation-anti-fungal-and-bacterial,,,,,,,,Liquid Lemongrass African Black Soap,,,,,"",400000,shopify,22,continue,manual,2500.00,,true,true,"",,,,,,,,,,,,,,,,,,,,kg
exfoliating-100-african-black-soap-body-wash-with-lemon-oil-daily-exfoliation-revitalizing-and-natural-brightening,"Exfoliating 100% African Black Soap Body Wash With Lemon oil ...Daily exfoliation, revitalizing and natural brightening","<p>Benefits:</p>
<meta charset=""utf-8"">
<p><span>African black soap has been used for centuries to cleanse the skin and hair as well as treat all skin and scalp ailments, it is revered for its mildness and cleansing properties that it is suitable for babies and people with sensitive skin. Its is full of natural conditioning oils, like palm kennel oil and coconut oil that leave the skin refreshed, detoxified, clean and fresh without drying the skin. It is also revered for its anti fungal and antibacterial properties, last but not least, the zingy lemongrass oil normalises and balances overactive oil glands on the skin and scalp, thereby making this particular black soap great for people with acne breakouts and oily skin and the heavenly bergamot oil acts as a natural deodoriser, keeping your skin fresh and citrusy all day long. The</span> lemon oil cleanses the skin, evens out your skin tone making it supple and smooth. The Lemon brightens, hydrates, exfoliates, and cleanses pores and tones naturally.</p>
<p>Aqua, Cocos nucifera (coconut oil), Baphia Nitida (cam wood bark), Bentonite Clay, Citrus Limon (Lemon oil), Elaeis guineensis (palm kernel oil), Coco pod Ash, Plantain peel ash, Shea bark ash and Citric acid.</p>",Namaste Organics,African Black Soap,"acne, african, balancing, blacksoap, clearskin, coconutoil, dryskintreatment, exzema, green, mature, moisturising, natural, protective, shea, skinrepair",true,Title,400gm,,,,,"",400000,,-16,deny,manual,2500.00,,true,false,"",https://cdn.shopify.com/s/files/1/0540/4697/products/LCC_6325webbie2_copy.jpg?v=1408717195,,false,,,,,,,,,,,,,,,,,kg
exfoliating-100-african-black-soap-body-wash-with-lemon-oil-daily-exfoliation-revitalizing-and-natural-brightening,,,,,,,,900gm,,,,,"",900000,shopify,9,deny,manual,4500.00,,true,false,72018960453330,,,,,,,,,,,,,,,,,,,,kg
exfoliating-100-african-black-soap-body-wash-with-lemon-oil-daily-exfoliation-revitalizing-and-natural-brightening,,,,,,,,Liquid Lemon Oil African Black Soap,,,,,"",400000,shopify,16,deny,manual,2500.00,,true,true,"",,,,,,,,,,,,,,,,,,,,kg
cedar-wood-and-lemon-whipped-shea-body-butter-cleansing-and-stimulating-daily-moisture,Cedar wood and Lemon Whipped Shea Body Butter ...Cleansing and stimulating daily moisture.,"<p>Uses: Shea butter heals sores, scars, dermatitis, psoriasis, dandruff and stretch marks. It is deeply moisturizing, it promotes cell renewal, diminished wrinkles and its high in Vitamin E, Coconut oil a natural conditioner, and olive oil softens and protects the skin as well as prevents premature aging. Lemon brightens, hydrates, exfoliates, and cleanses pores and tone naturally. Cedar wood oil reduces sweat gland problems and it also relieves itchy skin irritation.</p>
<p>Ingredients: Aqua, Butyrospermum parkii (Shea Butter), Cocos nucifera (Coconut oil), Olea Europaea (Olive oil), Sorbitan Palmitate (E-wax), Cedrus Atlantica (Cedar wood oil), Citrus Limon (Lemon oil), Alpha Tocopherol (Vitamin E oil), Benzyl alcohol, salicylic acid, and sorbic acid.</p>",Namaste Organics,Body Butter,"200ml, acne, african, brightening, cedarwoodoil, clearskin, coconutoil, healingbalm, lemonoil, mature, moisturising, natural, protective, sheabutter, skinrepair",true,Title,200gm,,,,,"",200,shopify,-4,continue,manual,2800.00,,true,false,61037058899,https://cdn.shopify.com/s/files/1/0540/4697/products/DSC_2223webresize.jpg?v=1408709743,,false,,,,,,,,,,,,,,,,,kg
cedar-wood-and-lemon-whipped-shea-body-butter-cleansing-and-stimulating-daily-moisture,,,,,,,,100gm Travel size,,,,,"",100,,-1,deny,manual,1800.00,,true,false,"",,,,,,,,,,,,,,,,,,,,kg
cedar-wood-and-lemon-whipped-shea-body-butter-cleansing-and-stimulating-daily-moisture,,,,,,,,800gm,,,,,"",800,,1,deny,manual,8500.00,,true,false,"",,,,,,,,,,,,,,,,,,,,kg
lavender-and-clary-sage-whipped-shea-polishing-body-butter-100-smoothening-clarifying-and-relaxing,"Lavender and Clary sage Whipped Shea Polishing Body Butter...100% Smoothening, Clarifying and Relaxing).","<p>Uses: Shea butter heals sores, scars, dermatitis, psoriasis, dandruff and stretch marks. It is deeply moisturizing, it promotes cell renewal, diminished wrinkles and contains high level of Vitamin E. Coconut oil deeply moisturizing especially for very dry skin and hair, olive oil softens and protects the skin, Clary sage oil is high in anti-oxidants that get rid of free radicals on the skin, it is also an anti-fungal and antiseptic. Lavender is an anti- inflammatory that heals and balances.</p>
<p>Ingredients: Aqua, Butyrospermum parkii (Shea Butter), Cocos nucifera (Coconut oil), Olea Europaea (Olive oil), Sorbitan Palmitate (E-wax), Ground rice flour, Lavandula angustifolia (Lavender oil), <span>Salvia sclarea (</span>Clary sage oil) and Alpha Tocopherol (Vitamin E oil,) Benzyl alcohol, salicylic acid and sorbic acid</p>",Namaste Organics,Body Butter,"",true,Title,Default Title,,,,,"",200000,,0,deny,manual,2800.00,,true,false,"",https://cdn.shopify.com/s/files/1/0540/4697/products/lavclarysagewebbie.jpg?v=1408712136,,false,,,,,,,,,,,,,,,,,kg
lavender-and-clary-sage-whipped-shea-polishing-body-butter-100-smoothening-clarifying-and-relaxing,,,,,,,,100gm Travel size,,,,,"",200000,,1,deny,manual,1800.00,,true,true,"",,,,,,,,,,,,,,,,,,,,kg
lavender-and-clary-sage-whipped-shea-polishing-body-butter-100-smoothening-clarifying-and-relaxing,,,,,,,,800gm Family size,,,,,"",200000,,1,deny,manual,8000.00,,true,false,"",,,,,,,,,,,,,,,,,,,,kg
patchouli-and-sweet-orange-whipped-shea-body-butter-regenerating-deodorising-daily-moisture,Patchouli and Sweet orange whipped shea body butter...Regenerating deodorising daily moisture.,"<p>Uses: Shea butter heals sores, scars, dermatitis, psoriasis, dandruff and stretch marks. It is deeply moisturizing, it promotes cell renewal, diminished wrinkles and contains high level of Vitamin E. Coconut oil deeply moisturizing especially for very dry skin and hair. Baobab oil is very high in Vitamin E, gets rid of stretch marks and promotes cell regeneration, olive oil softens and protects the skin as well as prevents premature aging. Sweet orange oil uplifts and detoxifies the skin. Patchouli oil prevents wrinkles, speed the healing of wound and fades scars. </p>&#13;
<p>Ingredients: Aqua, Butyrospermum parkii (Shea Butter), Cocos nucifera (Coconut oil), Olea Europaea (Olive oil), Sorbitan Palmitate (E-wax), Adansonia Digitata (Baobab oil), Citrus Sinensis (Sweet orange oil), Pogostemon Cablin (Patchuoli oil) and Alpha Tocopherol (Vitamin E oil), sorbitan.palmiate (emulsifier), phenoxyethanol and ethihexylglycerin (preservative.</p>&#13;
<p> </p>",Namaste Organics,Body Butter,"acne, african, clearskin, coconutoil, deodorant, essentialoils, mature, matureskin, natural, patchoili, protective, sheabutter, sweetorannge",true,Title,Default Title,,,,,"",200000,,-1,deny,manual,2800.00,,true,false,"",https://cdn.shopify.com/s/files/1/0540/4697/products/PatchuoliSweetOrangewebbie.jpg?v=1408715025,,false,,,,,,,,,,,,,,,,,kg
patchouli-and-sweet-orange-whipped-shea-body-butter-regenerating-deodorising-daily-moisture,,,,,,,,Family size,,,,,"",800,,1,deny,manual,8000.00,,true,false,"",,,,,,,,,,,,,,,,,,,,g
patchouli-and-sweet-orange-whipped-shea-body-butter-regenerating-deodorising-daily-moisture,,,,,,,,Travel size,,,,,"",100,,0,deny,manual,1800.00,,true,false,"",,,,,,,,,,,,,,,,,,,,g
lavender-and-may-chang-whipped-shea-body-butter-soothing-relaxing-clarifying-and-purifying,"Lavender and May chang Whipped shea body butter ...Soothing, relaxing, clarifying and purifying","<p> Uses: Shea butter heals sores, scars, dermatitis, psoriasis, dandruff and stretch marks. It is deeply moisturizing, it promotes cell renewal, diminished wrinkles and contains high levels of Vitamin E. Coconut oil deeply moisturizing especially for very dry skin and hair, May Chang oil tones and rejuvenates the skin and revive mature and worn out mature tired and dull skin. While lavender oil is an anti- inflammatory that heals, balances the skin and at the same time relaxes the senses.</p>
<p>Ingredients: Aqua, Butyrospermum parkii (Shea Butter), Cocos nucifera (Coconut oil), Olea Europaea (Olive oil), Sorbitan Palmitate (E-wax), Litsea Cubeba (Maychang oil), Lavendula Angustifolia (Lavender oil), Alpha Tocopherol (Vitamin E oil)</p>",Namaste Organics,Body Butter,"acne, african, balancing, clearskin, coconutoil, Lavender, mature, maychang, moisturising, natural, protective, sheabutter",true,Title,Default Title,Size,200ml,,,"",200000,,-1,deny,manual,2800.00,,true,false,"",https://cdn.shopify.com/s/files/1/0540/4697/products/MayChanglavwebbie.jpg?v=1408712865,,false,,,,,,,,,,,,,,,,,kg
lavender-and-may-chang-whipped-shea-body-butter-soothing-relaxing-clarifying-and-purifying,,,,,,,,Travel size,,100gm,,,"",100,,1,deny,manual,1800.00,,true,false,"",,,,,,,,,,,,,,,,,,,,kg
lavender-and-may-chang-whipped-shea-body-butter-soothing-relaxing-clarifying-and-purifying,,,,,,,,Family size,,800gm,,,"",800,,1,deny,manual,8000.00,,true,false,"",,,,,,,,,,,,,,,,,,,,kg
mandarin-maychang-whipped-shea-body-butter-intense-stimulating-and-uplifting,"Mandarin Maychang Whipped Shea body Butter, Intense Stimulating and Uplifting...","<p> </p>&#13;
<p>Uses: Shea butter heals sores, scars, dermatitis, psoriasis, dandruff and stretch marks. It is deeply moisturizing, it promotes cell renewal, diminished wrinkles and contains high level of Vitamin E. Coconut oil deeply moisturizing especially for very dry skin and hair, olive oil softens and protects the skin, May Chang oil is great for Mature Skin, promotes cell regeneration and replaces lost collagen, cleanses pores and tones naturally. Mandarin oil is a natural antiseptic that has bacteriacidal and fungicidal properties.</p>&#13;
<p> </p>&#13;
<p>Ingredients: Aqua, Butyrospermum parkii (Shea Butter), Cocos nucifera (Coconut oil), Olea Europaea (Olive oil), Sorbitan Palmitate (E-wax), Litsea Cubeba (Maychang oil), Citrus Peticulata (Mandarin oil), Alpha Tocopherol (Vitamin E oil), sorbitan.palmiate (emulsifier), phenoxyethanol and ethihexylglycerin (preservative).</p>",Namaste Organics,Body Butter,"acne, african, clearskin, coconutoil, mature, matureskin, moisturising, protective, sheabutter",true,Title,Default Title,Size,200ml,,,"",200000,,-1,deny,manual,2800.00,,true,false,"",https://cdn.shopify.com/s/files/1/0540/4697/products/mandarinmaychangwebbie.jpg?v=1408714172,,false,"Mandarin Maychang Whipped Shea body Butter, Intense Stimulating and Uplifting",,,,,,,,,,,,,,,,kg
mandarin-maychang-whipped-shea-body-butter-intense-stimulating-and-uplifting,,,,,,,,Family size,,800gm,,,"",800,,1,deny,manual,8000.00,,true,false,"",,,,,,,,,,,,,,,,,,,,g
mandarin-maychang-whipped-shea-body-butter-intense-stimulating-and-uplifting,,,,,,,,Travel size,,100gms,,,"",200000,,1,deny,manual,1800.00,,true,false,"",,,,,,,,,,,,,,,,,,,,kg
rosemary-peppermint-whipped-shea-hair-butter,Rosemary & Peppermint Whipped Shea Hair Butter.,"<p>Rosemary and Peppermint Deep Penetrating Conditioning Hair Butter</p>
<table width=""100%"">
<tbody>
<tr>
<td>
<p> Benefits</p>
<ul>
<li>Rosemary helps inprove circulation to scalp thereby stimulating new hair growth</li>
<li>New Anti dandruff fomula</li>
<li>Helps prevent dryness of the hair and scalp</li>
<li>Leaves hair moisturised thereby preventing breakage, brittle hair and frizz</li>
<li>Great for sealing in moisture and protecting hair from natural elements that dry and break the hair.</li>
<li>Great for deep conditioning and steaming</li>
</ul>
<p>Ingredients</p>
<p>Aqua, butyrospermum parkii (shea butter), cocos nucifera (coconut oil), olea europaea (olive oil) persea bratissima (avocado oil) aloe vera babadensis ,mentha peperita (peppermint oil), rosmarius officinalis (rosemary oil) sorbiton palmiate, alpha tocoperol(vitamine e), sorbitan.palmiate (emulsifier), phenoxyethanol and ethihexylglycerin (preservative)</p>
</td>
</tr>
</tbody>
</table>",Namaste Organics,Hair Butter,"aloe vera, green, hairbutter, peppermint, rosemary",true,Title,200gm,,,,,RPEP01,200,shopify,2,continue,yemisi,2800.00,,true,false,61037058901,https://cdn.shopify.com/s/files/1/0540/4697/products/rosepepwebbie.jpg?v=1408715857,,false,,,,,,,,,,,,,,,,,kg
rosemary-peppermint-whipped-shea-hair-butter,,,,,,,,100gm Travel size,,,,,"",100,,1,deny,manual,1800.00,,true,false,"",,,,,,,,,,,,,,,,,,,,kg
lavender-lemongrass-whipped-shea-body-butter,Lavender & Lemongrass whipped shea Body Butter,"<p>Lavender and Lemongrass Whipped Shea Body butter, 100% natural toning and cleansing.</p>
<p> </p>
<table width=""100%"">
<tbody>
<tr>
<td>
<p><span style=""line-height: 1.5;"">Benefits</span></p>
<ul>
<li><span style=""line-height: 1.5;""> Balances oils on the skin</span></li>
<li><span style=""line-height: 1.5;"">Deeply moisturising</span></li>
<li><span style=""line-height: 1.5;"">Penetrates deep down into the top layer of the skin to condition the skin and replace lost moisture</span></li>
<li><span style=""line-height: 1.5;"">Especially great for acne prone skin and it helps prevent the overproduction of oil on the skin</span></li>
</ul>
<p><span style=""line-height: 1.5;"">Ingredients</span></p>
<p><span style=""line-height: 1.5;"">Aqua,butyrospermum parkii(shea butter), cocoa nucifera (coconut oil), olea europaea(olive oil), cymbopogon winterianu (lemongrass oil ) and lavandula angustifolia (lavender oil), sorbitan.palmiate (emulsifier), phenoxyethanol and ethihexylglycerin (preservative) . </span></p>
</td>
</tr>
</tbody>
</table>",Namaste Organics,Body Butter,"acne, african, balancing, clearskin, coconutoil, moisturising, natural, sheabutter, toning",true,Title,200ml,,,,,LLEM01,200000,,0,deny,yemisi,2800.00,,true,false,"",https://cdn.shopify.com/s/files/1/0540/4697/products/LavLem2webbie.jpg?v=1408711537,,false,,,,,,,,,,,,,,,,,kg
lavender-lemongrass-whipped-shea-body-butter,,,,,,,,800gm family size,,,,,"",200000,,1,deny,manual,8000.00,,true,false,"",,,,,,,,,,,,,,,,,,,,kg
lavender-lemongrass-whipped-shea-body-butter,,,,,,,,100gm Travel size,,,,,"",200000,,0,deny,manual,1800.00,,true,false,"",,,,,,,,,,,,,,,,,,,,kg
rosemary-ylang-ylang-whipped-hair-body-butter,Rosemary & Ylang Ylang whipped Hair & Body butter,"<p>Whipped Shea Hair and Body Butter, 100% Natural Rejuvenating Daily Moisture.</p>
<table width=""100%"">
<tbody>
<tr>
<td>
<p> Benefits</p>
<ul>
<li><span style=""line-height: 1.2;"">Moisturises hair and skin</span></li>
<li><span style=""line-height: 1.2;"">Helps boost circulation to skin and scalp</span></li>
<li><span style=""line-height: 1.2;"">conditions the skin and scalp, preventing dryness</span></li>
<li><span style=""line-height: 1.2;"">repairs collagen and reverses visible signs of ageing</span></li>
<li><span style=""line-height: 1.2;"">Helps with new hair growth by penetrating the hair follicles</span></li>
<li>
<span style=""line-height: 1.2;""></span><span style=""line-height: 1.2;"">seals in moisture, protects the hair and prevents frizz</span>
</li>
</ul>
<p><span style=""line-height: 1.2;"">Ingredients:</span></p>
<p><span style=""line-height: 1.2;"">Aqua, butyrospermum parkii(shea butter), cocos nucifera (coconut oil) olea europaea (olive oil), argania spinosa (argan oil), cananga odorata (ylang ylang), rosmarius officinalis (rosemary oil), sorbitan.palmiate (emulsifier), phenoxyethanol and ethihexylglycerin (preservative) . </span></p>
</td>
</tr>
</tbody>
</table>",Namaste Organics,Hair and Body Butter,"200ml, hair and body butter, natural, protective, rosemary oil, ylangylang",true,Size,Default Title,,,,,RYLANG01,200000,shopify,0,continue,yemisi,2800.00,,true,false,"",https://cdn.shopify.com/s/files/1/0540/4697/products/DSC_2252webresize.jpg?v=1408715245,,false,,,,,,,,,,,,,,,,,kg
aloe-vera-conditioning-loc-butter,Aloe Vera Conditioning Loc Butter,"<p>Aloe Vera Conditioning Loc butter for Afros, Locs, twists and braids, moisturises, strenghtens and protects.<strong><em><sup><br></sup></em></strong></p>
<table width=""341"" height=""5"">
<tbody>
<tr>
<td>
<h4>Benefits:</h4>
<ul>
<li>Long lasting impeccable hold for your hairstyle</li>
<li>protects hair from root to tip</li>
<li>Keeps hair moisturised</li>
<li>Revitalises hair follicles</li>
<li>Grows Temple hairs quickly</li>
</ul>
<p> </p>
</td>
</tr>
<tr>
<td>
<h4>Ingredients:</h4>
<p>aqua, butyrospermum parkii (Shea butter) cocos nucifera (coconut oil) aloe vera babadensis, persea bratissima (avocado oil),buxus chinesis (jojoba oil) ,melia azadiratcha (neem oil), rosemarius officialis,(rosemary oil) litsea cubeba (maychang oil) eucalyptus radiata(eucalyptus oil) sorbitan.palmiate (emulsifier), phenoxyethanol and ethihexylglycerin (preservative)</p>
</td>
</tr>
</tbody>
</table>",Namaste Organics,Hair Butter,"200ml, aloevera, beeswax, green, hairbutter, locbutter",true,Title,200gm,,,,,LOCB001,200,,1,deny,yemisi,2800.00,,true,false,"",https://cdn.shopify.com/s/files/1/0540/4697/products/Locbutterwebbie.jpg?v=1408716837,,false,,,,,,,,,,,,,,,,,kg
aloe-vera-conditioning-loc-butter,,,,,,,,900gm Salon size,,,,,"",200000,shopify,0,continue,manual,8000.00,,true,false,"",,,,,,,,,,,,,,,,,,,,kg
aloe-vera-conditioning-loc-butter,,,,,,,,Travel size,,,,,"",100,shopify,3,deny,manual,1800.00,,true,false,"",,,,,,,,,,,,,,,,,,,,kg
