firstname,lastname,email_address,telephone,title,password
Dare,Art-Alade,dare@yahoo.com,08092348576,Mr,kj34543go8ghjg
Rita,Osagie,rita.osagie@gmail.com,+2348094857685,Ms,kjh435kjhyukj
Shayo,Adebola,shayo@ibmusa.com,+1804786475,Ms,lkh46lkg98ewg
Adeola,Adepoju,deola@hotmail.com,08025678945,Mrs,dsjh34r3ho89doh
Lara,Alade,omolara@gmail.com,080456789487,Mrs,jhl345lkjg45
Onomarie,Uriri,onomarie@citigroup.com,0834560980,Mrs,097fg98gfhl
